Untitled
…
title_n <- ggplot(title_word_count_by_project, aes(x = n, fill = factor(project_is_approved))) + 
    geom_bar(position = "fill") + ggtitle("Number of words by approval status")

# Get a sense of which words are the most common

tidy_books %>%
  count(word, sort = TRUE) 

# A tibble: 22,308 x 2
   word           n
   <chr>      <int>
 1 learning   15587
 2 technology  9677
 3 classroom   9590
 4 students    8486
 5 reading     8053
 6 books       6815
 7 seating     6618
 8 math        5520
 9 flexible    5393
10 learn       4927
# ... with 22,298 more rows
…
essay1_n <- ggplot(title_word_count_by_project, aes(x = n, fill = factor(project_is_approved))) + 
    geom_bar(position = "fill")

# Get a sense of which words are the most common

tidy_books %>%
  count(word, sort = TRUE) 

# A tibble: 46,131 x 2
   word           n
   <chr>      <int>
 1 students  610304
 2 school    310246
 3 learning  136342
 4 learn     118186
 5 classroom 117935
 6 love       77494
 7 day        74593
 8 grade      57162
 9 class      56279
10 free       51354
# ... with 46,121 more rows
…
essay2_n <- ggplot(title_word_count_by_project, aes(x = n, fill = factor(project_is_approved))) + 
    geom_bar(position = "fill")

# Get a sense of which words are the most common

tidy_books %>%
  count(word, sort = TRUE) 

# A tibble: 64,340 x 2
   word            n
   <chr>       <int>
 1 students   670368
 2 classroom  158719
 3 learning   154165
 4 reading    105082
 5 school     104381
 6 learn       88350
 7 books       81544
 8 skills      76292
 9 technology  67841
10 time        66121
# ... with 64,330 more rows
…
